<?xml version="1.0" encoding="utf-8"?>
<!-- Generator: Adobe Illustrator 18.0.0, SVG Export Plug-In . SVG Version: 6.00 Build 0)  -->
<!DOCTYPE svg PUBLIC "-//W3C//DTD SVG 1.1//EN" "http://www.w3.org/Graphics/SVG/1.1/DTD/svg11.dtd">
<svg version="1.1" xmlns="http://www.w3.org/2000/svg" xmlns:xlink="http://www.w3.org/1999/xlink" x="0px" y="0px"
	 viewBox="0 0 64 64" enable-background="new 0 0 64 64" xml:space="preserve">
<g id="Layer_1" display="none">
	<path display="inline" d="M32,0C14.3,0,0,14.3,0,32s14.3,32,32,32V40h-8v-8h8v-6c0-5.5,4.5-10,10-10h10v8H42c-1.1,0-2,0.9-2,2v6h11
		l-2,8h-9v23c13.8-3.6,24-16.1,24-31C64,14.3,49.7,0,32,0z"/>
</g>
<g id="Layer_2">
</g>
<g id="Layer_3">
	<path d="M32,0C14.3,0,0,14.3,0,32s14.3,32,32,32s32-14.3,32-32S49.7,0,32,0z M20.9,51.9h-9.3V24.1h9.3V51.9z M16.2,21
		c-2.6,0-4.6-2.1-4.6-4.6c0-2.6,2.1-4.6,4.6-4.6c2.6,0,4.6,2.1,4.6,4.6C20.9,18.9,18.8,21,16.2,21z M46,51.9V38.7
		c0-3.1-0.1-7.2-4.6-7.2c-4.6,0-5.4,3.4-5.4,7v13.4H27V24.1h8.6v4.4h0.1c1.2-2.1,4.1-4.4,8.4-4.4c9,0,10.7,5.6,10.7,12.9v14.9H46z"
		/>
</g>
</svg>
