<?xml version="1.0" encoding="utf-8"?>
<!-- Generator: Adobe Illustrator 18.0.0, SVG Export Plug-In . SVG Version: 6.00 Build 0)  -->
<!DOCTYPE svg PUBLIC "-//W3C//DTD SVG 1.1//EN" "http://www.w3.org/Graphics/SVG/1.1/DTD/svg11.dtd">
<svg version="1.1" id="Layer_1" xmlns="http://www.w3.org/2000/svg" xmlns:xlink="http://www.w3.org/1999/xlink" x="0px" y="0px"
	 viewBox="0 0 36 36" enable-background="new 0 0 36 36" xml:space="preserve">
<g>
	<polygon fill="#1673B6" points="5,32.4 2.1,0 33.8,0 30.9,32.4 17.9,36 	"/>
	<polygon fill="#35A9DB" points="18,33.2 28.5,30.3 30.9,2.6 18,2.6 	"/>
	<g>
		<polygon fill="#FFFFFF" points="18,14.4 23.2,14.4 23.6,10.3 18,10.3 18,6.3 18,6.3 27.9,6.3 27.8,7.4 26.8,18.4 18,18.4 		"/>
		<polygon fill="#EBEBEB" points="18,24.7 18,24.7 13.5,23.5 13.3,20.3 11.1,20.3 9.3,20.3 9.8,26.6 18,28.8 18,28.8 		"/>
		<polygon fill="#FFFFFF" points="22.9,18.2 22.4,23.5 18,24.7 18,28.8 26.1,26.6 26.2,25.9 26.9,18.2 		"/>
		<polygon fill="#EBEBEB" points="18,6.3 18,8.8 18,10.3 18,10.3 8.4,10.3 8.4,10.3 8.4,10.3 8.3,9.4 8.1,7.4 8,6.3 		"/>
		<polygon fill="#EBEBEB" points="18,14.4 18,16.9 18,18.4 18,18.4 13.6,18.4 13.6,18.4 13.6,18.4 13.5,17.5 13.3,15.5 13.2,14.4 		
			"/>
	</g>
</g>
</svg>
