<?xml version="1.0" encoding="utf-8"?>
<!-- Generator: Adobe Illustrator 18.0.0, SVG Export Plug-In . SVG Version: 6.00 Build 0)  -->
<!DOCTYPE svg PUBLIC "-//W3C//DTD SVG 1.1//EN" "http://www.w3.org/Graphics/SVG/1.1/DTD/svg11.dtd">
<svg version="1.1" id="Layer_1" xmlns="http://www.w3.org/2000/svg" xmlns:xlink="http://www.w3.org/1999/xlink" x="0px" y="0px"
	 viewBox="0 0 36 36" enable-background="new 0 0 36 36" xml:space="preserve">
<g id="text">
</g>
<g>
	<g id="icon">
		
			<radialGradient id="SVGID_1_" cx="-1799.455" cy="-549.1625" r="703.3304" gradientTransform="matrix(6.400459e-02 0 0 6.400459e-02 116.9184 37.203)" gradientUnits="userSpaceOnUse">
			<stop  offset="0" style="stop-color:#3A2C22"/>
			<stop  offset="1.408249e-02" style="stop-color:#392B21"/>
			<stop  offset="0.2894" style="stop-color:#2C1B11"/>
			<stop  offset="0.5967" style="stop-color:#241107"/>
			<stop  offset="1" style="stop-color:#220E04"/>
		</radialGradient>
		<rect x="0.8" y="1.2" fill="url(#SVGID_1_)" width="34.5" height="33.6"/>
		<path fill="#FF7719" d="M34.5,2v32H1.5V2H34.5 M36,0.4H0v35.1h36V0.4L36,0.4z"/>
	</g>
	<g id="A">
		<path fill="#FF7719" d="M12.9,21.8l-1.7,4.6c0,0.2-0.1,0.2-0.3,0.2H8.2c-0.2,0-0.2-0.1-0.2-0.3c1.5-4.1,4-10.9,5.7-15.5
			c0.1-0.2,0.2-0.5,0.2-1.5c0-0.1,0.1-0.2,0.2-0.2h3.7c0.1,0,0.2,0,0.2,0.1c2.1,5.6,4.2,11.4,6.3,17c0.1,0.2,0,0.2-0.2,0.2h-3
			c-0.1,0-0.2-0.1-0.2-0.2l-1.8-4.7L12.9,21.8L12.9,21.8z M18.4,19.2c-0.6-1.8-1.9-5.4-2.5-7.3h0c-0.4,1.8-1.5,4.8-2.4,7.3H18.4z"/>
	</g>
	<g id="i">
		<rect x="25.1" y="13.7" fill="#FF7719" width="3.1" height="13"/>
		<circle fill="#FF7719" cx="26.6" cy="11.2" r="1.5"/>
	</g>
</g>
</svg>
