<?xml version="1.0" encoding="utf-8"?>
<!-- Generator: Adobe Illustrator 18.0.0, SVG Export Plug-In . SVG Version: 6.00 Build 0)  -->
<!DOCTYPE svg PUBLIC "-//W3C//DTD SVG 1.1//EN" "http://www.w3.org/Graphics/SVG/1.1/DTD/svg11.dtd">
<svg version="1.1" id="Layer_1" xmlns="http://www.w3.org/2000/svg" xmlns:xlink="http://www.w3.org/1999/xlink" x="0px" y="0px"
	 viewBox="0 0 36 36" enable-background="new 0 0 36 36" xml:space="preserve">
<g>
	<polygon fill="#E4A227" points="5,32.4 2.1,0 33.9,0 31,32.4 18,36 	"/>
	<polygon fill="#F0BF26" points="18,33.2 28.5,30.3 30.9,2.6 18,2.6 	"/>
	<polygon fill="#EBEBEB" points="18,24.9 17.9,25 13.5,23.8 13.2,20.6 11.1,20.6 9.3,20.6 9.8,26.8 17.9,29.1 18,29.1 	"/>
	<polygon fill="#EBEBEB" points="18.5,18.6 18.5,14.6 13.6,14.6 14.2,8.4 18.5,8.3 18.5,4.1 10.6,4.1 10.3,7.1 9.4,17.5 9.3,18.6 
		10.3,18.6 	"/>
	<polygon fill="#FFFFFF" points="18.5,8.3 18.5,8.3 22.8,8.5 23.2,12.6 25.4,12.6 27.2,12.6 26.5,5 18.5,4.1 18.5,4.1 	"/>
	<polyline fill="#FFFFFF" points="26.8,8.3 26.4,4.1 18.1,4.1 18.1,6.7 18.1,8.3 18.1,8.3 26.8,8.3 	"/>
	<polygon fill="#FFFFFF" points="18,14.6 18,18.6 22.8,18.6 22.4,23.8 18,25 18,29.1 26.1,26.8 26.2,26.2 27.1,15.7 27.2,14.6 
		26.1,14.6 	"/>
	<path fill="#FFFFFF" d="M26.3,8.1"/>
</g>
</svg>
