<?xml version="1.0" encoding="utf-8"?>
<!-- Generator: Adobe Illustrator 18.0.0, SVG Export Plug-In . SVG Version: 6.00 Build 0)  -->
<!DOCTYPE svg PUBLIC "-//W3C//DTD SVG 1.1//EN" "http://www.w3.org/Graphics/SVG/1.1/DTD/svg11.dtd">
<svg version="1.1" id="Layer_1" xmlns="http://www.w3.org/2000/svg" xmlns:xlink="http://www.w3.org/1999/xlink" x="0px" y="0px"
	 viewBox="0 0 36 36" enable-background="new 0 0 36 36" xml:space="preserve">
<g id="text">
</g>
<path fill="#CD6799" d="M31,20c-1.3,0-2.3,0.3-3.3,0.8c-0.3-0.7-0.7-1.3-0.7-1.7c-0.1-0.5-0.1-0.8-0.1-1.4c0.1-0.6,0.4-1.5,0.4-1.5
	c0-0.1-0.1-0.4-0.8-0.4c-0.7,0-1.3,0.1-1.4,0.3c-0.1,0.2-0.2,0.6-0.3,1.1c-0.1,0.7-1.4,3-2.2,4.2c-0.2-0.5-0.5-0.9-0.5-1.2
	c-0.1-0.5-0.1-0.8-0.1-1.4c0.1-0.6,0.4-1.5,0.4-1.5c0-0.1-0.1-0.4-0.8-0.4s-1.3,0.1-1.4,0.3c-0.1,0.2-0.2,0.6-0.3,1.1
	c-0.2,0.4-1.9,4.4-2.4,5.4c-0.2,0.5-0.4,0.9-0.6,1.2l0,0c0,0,0,0,0,0.1c-0.1,0.2-0.2,0.4-0.2,0.4s0,0,0,0c-0.1,0.2-0.2,0.3-0.3,0.3
	c0,0-0.1-0.5,0-1.1c0.3-1.4,0.9-3.5,0.9-3.6c0,0,0.1-0.4-0.4-0.6c-0.5-0.2-0.7,0.1-0.7,0.1c0,0-0.1,0.1-0.1,0.1s0.6-2.4-1.1-2.4
	c-1,0-2.5,1.1-3.2,2.2c-0.4,0.2-1.4,0.8-2.4,1.3c-0.4,0.2-0.8,0.4-1.2,0.6c0,0-0.1-0.1-0.1-0.1c-2-2.2-5.7-3.7-5.6-6.6
	c0.1-1.1,0.4-3.8,7.1-7.2c5.5-2.7,9.9-2,10.7-0.3c1.1,2.4-2.4,6.8-8.1,7.5c-2.2,0.2-3.3-0.6-3.6-0.9c-0.3-0.3-0.3-0.3-0.5-0.3
	c-0.2,0.1-0.1,0.4,0,0.6c0.2,0.4,0.9,1.2,2.1,1.6c1.1,0.3,3.6,0.5,6.7-0.7c3.5-1.3,6.2-5.1,5.4-8.2c-0.8-3.2-6.1-4.2-11-2.4
	c-3,1.1-6.2,2.7-8.5,4.9C0.3,12.8-0.1,15,0,16c0.6,3.3,5.2,5.5,7,7.1c-0.1,0.1-0.2,0.1-0.2,0.1c-0.9,0.5-4.4,2.3-5.3,4.2
	c-1,2.2,0.2,3.7,0.9,4c2.3,0.7,4.8-0.5,6.1-2.5c1.3-1.9,1.1-4.4,0.5-5.6c0,0,0,0,0,0c0.2-0.1,0.5-0.3,0.7-0.4
	c0.5-0.3,0.9-0.5,1.3-0.7c-0.2,0.6-0.4,1.3-0.5,2.4c-0.1,1.2,0.4,2.8,1.1,3.5c0.3,0.3,0.6,0.3,0.9,0.3c0.8,0,1.1-0.6,1.5-1.4
	c0.5-0.9,0.9-2,0.9-2s-0.5,2.9,0.9,2.9c0.5,0,1.1-0.7,1.3-1c0,0,0,0,0,0s0,0,0-0.1c0.1-0.1,0.1-0.1,0.1-0.1s0,0,0,0
	c0.2-0.4,0.7-1.2,1.4-2.6c0.9-1.8,1.8-4,1.8-4s0.1,0.5,0.3,1.5c0.2,0.5,0.5,1.1,0.7,1.7c-0.2,0.3-0.3,0.5-0.3,0.5s0,0,0,0
	c-0.2,0.2-0.4,0.5-0.6,0.7C20,25,19.1,26,19,26.3c-0.1,0.3-0.1,0.6,0.2,0.8c0.2,0.1,0.5,0.2,0.9,0.1c0.6,0,1.1-0.2,1.3-0.3
	c0.3-0.1,0.8-0.3,1.1-0.6c0.7-0.5,1.1-1.3,1.1-2.2c0-0.5-0.2-1.1-0.4-1.6c0.1-0.1,0.1-0.2,0.2-0.3c1.1-1.6,2-3.4,2-3.4
	s0.1,0.5,0.3,1.5c0.1,0.5,0.4,1,0.6,1.4c-1,0.8-1.7,1.8-1.9,2.5c-0.4,1.2-0.1,1.7,0.5,1.9c0.3,0.1,0.7-0.1,1-0.2
	c0.4-0.1,0.8-0.3,1.2-0.6c0.7-0.5,1.4-1.2,1.3-2.2c0-0.4-0.1-0.9-0.3-1.3c0.9-0.4,2-0.6,3.5-0.4c3.1,0.4,3.7,2.3,3.6,3.1
	c-0.1,0.8-0.8,1.3-1,1.4C34,26,34,26,34,26.1c0,0.1,0.1,0.1,0.3,0.1c0.3,0,1.6-0.7,1.7-2.2C36.1,22.1,34.3,20,31,20z M6.9,28.2
	c-1,1.1-2.5,1.6-3.1,1.2c-0.7-0.4-0.4-2.1,0.9-3.3c0.8-0.7,1.8-1.4,2.4-1.8c0.2-0.1,0.4-0.2,0.6-0.4c0,0,0.1,0,0.1,0l0,0
	c0.1,0,0.1-0.1,0.2-0.1C8.4,25.5,7.9,27,6.9,28.2z M14.4,23c-0.4,0.9-1.1,3.1-1.6,3c-0.4-0.1-0.6-1.8-0.1-3.5
	c0.3-0.8,0.9-1.9,1.2-2.3c0.6-0.6,1.2-0.8,1.3-0.6C15.5,20,14.6,22.5,14.4,23z M20.7,26c-0.2,0.1-0.3,0.1-0.4,0.1
	c0,0,0.1-0.1,0.1-0.1s0.8-0.8,1.1-1.2c0.2-0.2,0.4-0.5,0.6-0.8c0,0,0,0.1,0,0.1C22.1,25.1,21.1,25.7,20.7,26z M25.5,24.9
	c-0.1-0.1-0.1-0.3,0.3-1.2c0.1-0.3,0.5-0.9,1.1-1.4c0.1,0.2,0.1,0.4,0.1,0.6C26.9,24.2,26,24.7,25.5,24.9z"/>
</svg>
